<?xml version="1.0" standalone="no"?>
<!DOCTYPE svg PUBLIC "-//W3C//DTD SVG 20010904//EN"
 "http://www.w3.org/TR/2001/REC-SVG-20010904/DTD/svg10.dtd">
<svg version="1.0" xmlns="http://www.w3.org/2000/svg"
 width="48.000000pt" height="48.000000pt" viewBox="0 0 48.000000 48.000000"
 preserveAspectRatio="xMidYMid meet">

<g transform="translate(0.000000,48.000000) scale(0.100000,-0.100000)"
fill="#000000" stroke="none">
<path d="M175 457 c-61 -16 -139 -99 -154 -165 -20 -82 -1 -143 63 -208 97
-97 215 -97 312 0 97 97 97 215 0 311 -68 69 -131 86 -221 62z m73 -114 c2 -8
-5 -13 -17 -13 -26 0 -28 -15 -3 -25 16 -6 16 -7 0 -19 -10 -7 -18 -23 -18
-34 0 -30 -28 -56 -46 -41 -14 12 -9 33 6 24 4 -3 10 4 13 15 3 12 -1 24 -11
30 -16 9 -16 11 -1 20 9 5 20 21 23 36 5 19 12 24 28 22 12 -2 23 -9 26 -15z
m37 -53 c5 -8 11 -7 21 1 18 14 32 3 16 -13 -15 -15 14 -58 39 -58 11 0 19 -4
19 -10 0 -6 -30 -10 -70 -10 -54 0 -70 -3 -70 -14 0 -8 -5 -27 -10 -41 l-10
-27 -33 26 c-17 15 -42 31 -55 36 -13 6 -20 14 -17 20 10 17 32 11 64 -16 l31
-26 0 26 c0 19 7 29 24 35 27 11 37 31 29 60 -5 22 11 29 22 11z"/>
<path d="M286 243 c-11 -11 -6 -23 9 -23 8 0 15 4 15 9 0 13 -16 22 -24 14z"/>
</g>
</svg>
